[gd_resource type="ShaderMaterial" load_steps=4 format=2]

[sub_resource type="Shader" id=1]
code = "shader_type spatial;
render_mode world_vertex_coords;

uniform vec4 water_color : hint_color;
uniform sampler2D water_texture : hint_albedo;
uniform vec2 amplitude = vec2(0.2, 0.1);
uniform vec2 frequency = vec2(0.5, 0.5);
uniform vec2 time_factor = vec2(2.0, 3.0);

float height(vec2 pos, float time) {
	return (amplitude.x * sin(pos.x * frequency.x + time * time_factor.x)) + (amplitude.y * sin(pos.y * frequency.y + time * time_factor.y));
}

void vertex() {
	VERTEX.y += height(VERTEX.xz, TIME); // sample the height at the location of our vertex
	TANGENT = normalize(vec3(0.0, height(VERTEX.xz + vec2(0.0, 0.2), TIME) - height(VERTEX.xz + vec2(0.0, -0.2), TIME), 0.4));
	BINORMAL = normalize(vec3(0.4, height(VERTEX.xz + vec2(0.2, 0.0), TIME) - height(VERTEX.xz + vec2(-0.2, 0.0), TIME ), 0.0));
	NORMAL = cross(TANGENT, BINORMAL);
}

void fragment() {
	ALBEDO.rgb = water_color.rgb * (texture(water_texture, UV * 1.0).rgb * 1.2);
	NORMALMAP = texture(water_texture, UV * 1.0).rgb;
	ALPHA = 0.7;
	METALLIC = 0.8;
}
"

[sub_resource type="OpenSimplexNoise" id=2]
octaves = 6
lacunarity = 4.0

[sub_resource type="NoiseTexture" id=3]
width = 50
height = 50
seamless = true
noise = SubResource( 2 )

[resource]
shader = SubResource( 1 )
shader_param/water_color = Color( 0.117647, 0.6, 0.94902, 1 )
shader_param/amplitude = Vector2( 0.2, 0.1 )
shader_param/frequency = Vector2( 0.5, 0.5 )
shader_param/time_factor = Vector2( 2, 3 )
shader_param/water_texture = SubResource( 3 )
